<?xml version="1.0" encoding="utf-8"?>
<!-- Generator: Adobe Illustrator 23.0.5, SVG Export Plug-In . SVG Version: 6.00 Build 0)  -->
<svg version="1.1" id="Capa_1" xmlns="http://www.w3.org/2000/svg" xmlns:xlink="http://www.w3.org/1999/xlink" x="0px" y="0px"
	 viewBox="0 0 576 512" style="enable-background:new 0 0 576 512;" xml:space="preserve">
<style type="text/css">
	.st0{opacity:0.6;fill:#FFFFFF;}
	.st1{fill:#FFFFFF;}
</style>
<path class="st0" d="M322,96.2l8.9-26.7c2.3-6.8-1.4-14.2-8.3-16.4c-2.7-0.9-5.6-0.9-8.2,0l-75.3,25.1l-35.5-71
	c-3.2-6.4-11-9.1-17.4-5.9c-2.6,1.3-4.6,3.3-5.9,5.9l-35.5,71L69.5,53.1c-6.8-2.3-14.2,1.4-16.4,8.3c-0.9,2.7-0.9,5.6,0,8.2
	l25.1,75.3l-71,35.5c-6.4,3.2-9.1,11-5.9,17.4c1.3,2.6,3.3,4.6,5.9,5.9l71,35.5l-25.1,75.3c-2.3,6.8,1.5,14.2,8.3,16.5
	c2.7,0.9,5.5,0.9,8.2,0l59.2-19.7c-0.2-2.4-0.7-4.7-0.7-7.2c0.1-12.2,2.2-24.4,6.2-35.9c-3.6-2.5-7-5.3-10.2-8.3
	c-37.4-37.5-37.4-98.3,0-135.8c34.6-34.6,89.1-36.8,126.7-7.4c20.6-13.4,44.6-20.6,69.2-20.7C320.7,96,321.3,96.2,322,96.2z
	 M225.8,137.9c-10.1-6.4-21.8-9.9-33.8-9.9c-35.3,0-64,28.7-64,64c0,18,7.7,35.1,21.1,47.1c11.4-16.1,26.9-29,44.8-37.2
	C198.2,178,209.3,155.8,225.8,137.9L225.8,137.9z M524.5,418.1c-7.7-4.4-17.4-1.7-21.8,6l-36.6,64c-4.4,7.6-1.7,17.4,5.9,21.8
	c0,0,0.1,0,0.1,0c7.7,4.4,17.4,1.7,21.8-6l36.6-64C534.9,432.3,532.2,422.5,524.5,418.1z M428.5,418.1c-7.7-4.4-17.4-1.7-21.8,6
	l-36.6,64c-4.4,7.6-1.7,17.4,5.9,21.8c0,0,0.1,0,0.1,0c7.7,4.4,17.4,1.7,21.8-6l36.6-64C438.9,432.3,436.2,422.5,428.5,418.1z
	 M332.5,418.1c-7.7-4.4-17.4-1.7-21.8,6l-36.6,64c-4.4,7.6-1.7,17.4,5.9,21.8c0,0,0.1,0,0.1,0c7.7,4.4,17.4,1.7,21.8-6l36.6-64
	C342.9,432.3,340.2,422.5,332.5,418.1z M236.5,418.1c-7.7-4.4-17.4-1.7-21.8,6l-36.6,64c-4.4,7.6-1.7,17.4,5.9,21.8c0,0,0.1,0,0.1,0
	c7.7,4.4,17.4,1.7,21.8-6l36.6-64C246.9,432.3,244.2,422.5,236.5,418.1z"/>
<path class="st1" d="M576,304c0,44.2-35.8,80-80,80H240c-44.2-0.1-79.9-35.9-79.9-80.1c0.1-38,26.8-70.7,64.1-78.3
	c0-0.5-0.2-1.1-0.2-1.6c-0.1-52.9,42.7-95.9,95.6-96c31-0.1,60,14.8,78.1,40c10.7-5.2,22.4-7.9,34.3-8c38.5,0.1,71.5,27.6,78.5,65.5
	C548.5,232.4,576,265.5,576,304z"/>
<g>
</g>
<g>
</g>
<g>
</g>
<g>
</g>
<g>
</g>
<g>
</g>
<g>
</g>
<g>
</g>
<g>
</g>
<g>
</g>
<g>
</g>
<g>
</g>
<g>
</g>
<g>
</g>
<g>
</g>
</svg>
